module codeberg.org/pluja/web-whisper-plus

go 1.20

require (
	github.com/go-chi/chi v1.5.4
	github.com/go-chi/chi/v5 v5.0.8
	github.com/go-chi/cors v1.2.1
	github.com/joho/godotenv v1.5.1
	github.com/rs/zerolog v1.29.1
	gorm.io/datatypes v1.2.0
	gorm.io/driver/sqlite v1.4.3
	gorm.io/gorm v1.25.1
)

require (
	github.com/go-sql-driver/mysql v1.7.0 // indirect
	github.com/jinzhu/inflection v1.0.0 // indirect
	github.com/jinzhu/now v1.1.5 // indirect
	github.com/mattn/go-colorable v0.1.12 // indirect
	github.com/mattn/go-isatty v0.0.14 // indirect
	github.com/mattn/go-sqlite3 v1.14.15 // indirect
	golang.org/x/sys v0.0.0-20210927094055-39ccf1dd6fa6 // indirect
	gorm.io/driver/mysql v1.4.7 // indirect
)
